﻿2017-10-07T21:23:35.9997890+01:00;VSTestExecutionThread;Info;SpecFlow+Runner execution started
2017-10-07T21:23:36.0810040+01:00;VSTestExecutionThread;Info;SpecRun Evaluation Mode: Please purchase at http://www.specflow.org/plus to remove test execution delay.
2017-10-07T21:23:36.0820083+01:00;VSTestExecutionThread;Info;SpecRun: running tests in C:\Users\tripatyx\Documents\Visual Studio 2017\Projects\GoogleAutomation\GoogleAutomation\bin\Debug\GoogleAutomation.dll
2017-10-07T21:23:36.0820083+01:00;VSTestExecutionThread;Info;Profile: Default
2017-10-07T21:23:42.1441794+01:00;VSTestExecutionThread;Info;Discovering target: Default
2017-10-07T21:23:42.1441794+01:00;VSTestExecutionThread;Info;Discovering tests from assembly: C:\Users\tripatyx\Documents\Visual Studio 2017\Projects\GoogleAutomation\GoogleAutomation\bin\Debug\GoogleAutomation.dll
2017-10-07T21:23:43.9096286+01:00;VSTestExecutionThread;Info;Log file: file:///C:\Users\tripatyx\Documents\Visual%20Studio%202017\Projects\GoogleAutomation\TestResults\GoogleAutomation_Default_2017-10-07T212336.log
2017-10-07T21:23:43.9096286+01:00;VSTestExecutionThread;Info;SpecFlow+Runner execution finished
2017-10-07T21:24:10.7510332+01:00;VSTestExecutionThread;Info;SpecFlow+Runner execution started
2017-10-07T21:24:10.7690804+01:00;VSTestExecutionThread;Info;SpecRun Evaluation Mode: Please purchase at http://www.specflow.org/plus to remove test execution delay.
2017-10-07T21:24:10.7700829+01:00;VSTestExecutionThread;Info;SpecRun: running tests in C:\Users\tripatyx\Documents\Visual Studio 2017\Projects\GoogleAutomation\GoogleAutomation\bin\Debug\GoogleAutomation.dll
2017-10-07T21:24:10.7700829+01:00;VSTestExecutionThread;Info;Profile: Default
2017-10-07T21:24:21.7737019+01:00;VSTestExecutionThread;Info;Discovering target: Default
2017-10-07T21:24:21.7747088+01:00;VSTestExecutionThread;Info;Discovering tests from assembly: C:\Users\tripatyx\Documents\Visual Studio 2017\Projects\GoogleAutomation\GoogleAutomation\bin\Debug\GoogleAutomation.dll
2017-10-07T21:24:23.0954107+01:00;VSTestExecutionThread;Info;Log file: file:///C:\Users\tripatyx\Documents\Visual%20Studio%202017\Projects\GoogleAutomation\TestResults\GoogleAutomation_Default_2017-10-07T212410.log
2017-10-07T21:24:23.0964135+01:00;VSTestExecutionThread;Info;SpecFlow+Runner execution finished
2017-10-07T21:24:33.6650260+01:00;VSTestExecutionThread;Info;SpecFlow+Runner execution started
2017-10-07T21:24:33.6760548+01:00;VSTestExecutionThread;Info;SpecRun Evaluation Mode: Please purchase at http://www.specflow.org/plus to remove test execution delay.
2017-10-07T21:24:33.6770580+01:00;VSTestExecutionThread;Info;SpecRun: running tests in C:\Users\tripatyx\Documents\Visual Studio 2017\Projects\GoogleAutomation\GoogleAutomation\bin\Debug\GoogleAutomation.dll
2017-10-07T21:24:33.6780594+01:00;VSTestExecutionThread;Info;Profile: Default
2017-10-07T21:24:41.6820281+01:00;Thread#16;Info;Discovering target: Default
2017-10-07T21:24:41.6828428+01:00;Thread#16;Info;Discovering tests from assembly: C:\Users\tripatyx\Documents\Visual Studio 2017\Projects\GoogleAutomation\GoogleAutomation\bin\Debug\GoogleAutomation.dll
Appdomain Disposed
Test Suite Dump
#0: GoogleAutomation/Default - 
#1: Default - 
#2: GoogleAutomation - 
#3: GoogleHeadlines - 
#4: Read Uk news headlines - TestAssembly:GoogleAutomation/Feature:GoogleHeadlines/Scenario:Read+Uk+news+headlines
#5: Verify the country, U.K. - TestAssembly:GoogleAutomation/Feature:GoogleHeadlines/Scenario:Verify+the+country%2c+U.K.
#6: Verify the country, U.S. - TestAssembly:GoogleAutomation/Feature:GoogleHeadlines/Scenario:Verify+the+country%2c+U.S.
#7: Verify the country, India - TestAssembly:GoogleAutomation/Feature:GoogleHeadlines/Scenario:Verify+the+country%2c+India
End: Test Suite Dump
Thread#0:Scheduler: get next test for thread 0
Thread#:Scheduler: testitem #4 from normal test queue 
Thread#0:Scheduler: considering testitem #4 for thread 0
Thread#0:TestItem#4:testItemMatchesCurrentTestThread:UnSpecific
Thread#0:TestItem#4:runsOnOneOtherThreadSpecific:False
Thread#0:TestItem#4:runsOnOneOtherThreadUnspecific:False
Thread#0:Scheduler: using testitem #4 for thread 0
Thread#0:Scheduler: Test #4 is scheduled for thread
Thread#0:Scheduler: with testItemExecutionIndex 0
Thread #0: creating new test thread executor for GoogleAutomation, Version=1.0.0.0, Culture=neutral, PublicKeyToken=null (target: Default)
Loading SpecRun type 'TechTalk.SpecRun.Framework.TestAssemblyExecutor' from: C:\Users\tripatyx\AppData\Local\Temp\VisualStudioTestExplorerExtensions\SpecRun.Runner.1.6.3\tools\TechTalk.SpecRun.Framework.Executor.dll
Thread#0: Test #4/0 is started on thread #0
Thread#0:T:-> Using app.config
Thread#0:B:Given I am on google home page
Thread#0:T:done: GoogleHeadlinesSteps.GivenIAmOnGoogleHomePage() (0.0s)
Thread#0:B:When I select 'U.K.' to read news
Thread#0:T:done: GoogleHeadlinesSteps.WhenISelectToReadNews("U.K.") (0.0s)
Thread#0:B:Then News section should display
Thread#0:T:done: GoogleHeadlinesSteps.ThenNewsSectionShouldDisplay() (0.0s)
Thread#0:B:And Each news should contain an image
Thread#0:T:pending: GoogleHeadlinesSteps.ThenEachNewsShouldContainAnImage()
Thread#0:T:Pending: One or more step definitions are not implemented yet.
Thread#0:T:  GoogleHeadlinesSteps.ThenEachNewsShouldContainAnImage()
Thread#0:Scheduler: get next test for thread 0
Thread#:Scheduler: testitem #5 from normal test queue 
Thread#0:Scheduler: considering testitem #5 for thread 0
Thread#0:TestItem#5:testItemMatchesCurrentTestThread:UnSpecific
Thread#0:TestItem#5:runsOnOneOtherThreadSpecific:False
Thread#0:TestItem#5:runsOnOneOtherThreadUnspecific:False
Thread#0:Scheduler: using testitem #5 for thread 0
Thread#0:Scheduler: Test #5 is scheduled for thread
Thread#0:Scheduler: with testItemExecutionIndex 0
Thread#0: Test #4/0 is finished on thread #0 as Pending within 0.1433832 seconds
Thread#0: Test #5/0 is started on thread #0
Thread#0:B:Given I am on google home page
Thread#0:T:done: GoogleHeadlinesSteps.GivenIAmOnGoogleHomePage() (0.0s)
Thread#0:B:When I select 'U.K.' to read news
Thread#0:T:done: GoogleHeadlinesSteps.WhenISelectToReadNews("U.K.") (0.0s)
Thread#0:B:Then 'U.K.' should be displayed under the Sections
Thread#0:T:done: GoogleHeadlinesSteps.ThenShouldBeDisplayedUnderTheSections("U.K.") (0.0s)
Thread#0:Scheduler: get next test for thread 0
Thread#:Scheduler: testitem #6 from normal test queue 
Thread#0:Scheduler: considering testitem #6 for thread 0
Thread#0:TestItem#6:testItemMatchesCurrentTestThread:UnSpecific
Thread#0:TestItem#6:runsOnOneOtherThreadSpecific:False
Thread#0:TestItem#6:runsOnOneOtherThreadUnspecific:False
Thread#0:Scheduler: using testitem #6 for thread 0
Thread#0:Scheduler: Test #6 is scheduled for thread
Thread#0:Scheduler: with testItemExecutionIndex 0
Thread#0: Test #5/0 is finished on thread #0 as Succeeded within 0.0040106 seconds
Thread#0: Test #6/0 is started on thread #0
Thread#0:B:Given I am on google home page
Thread#0:T:done: GoogleHeadlinesSteps.GivenIAmOnGoogleHomePage() (0.0s)
Thread#0:B:When I select 'U.S.' to read news
Thread#0:T:done: GoogleHeadlinesSteps.WhenISelectToReadNews("U.S.") (0.0s)
Thread#0:B:Then 'U.S.' should be displayed under the Sections
Thread#0:T:done: GoogleHeadlinesSteps.ThenShouldBeDisplayedUnderTheSections("U.S.") (0.0s)
Thread#0:Scheduler: get next test for thread 0
Thread#:Scheduler: testitem #7 from normal test queue 
Thread#0:Scheduler: considering testitem #7 for thread 0
Thread#0:TestItem#7:testItemMatchesCurrentTestThread:UnSpecific
Thread#0:TestItem#7:runsOnOneOtherThreadSpecific:False
Thread#0:TestItem#7:runsOnOneOtherThreadUnspecific:False
Thread#0:Scheduler: using testitem #7 for thread 0
Thread#0:Scheduler: Test #7 is scheduled for thread
Thread#0:Scheduler: with testItemExecutionIndex 0
Thread#0: Test #6/0 is finished on thread #0 as Succeeded within 0.0092839 seconds
Thread#0: Test #7/0 is started on thread #0
Thread#0:B:Given I am on google home page
Thread#0:T:done: GoogleHeadlinesSteps.GivenIAmOnGoogleHomePage() (0.0s)
Thread#0:B:When I select 'India' to read news
Thread#0:T:done: GoogleHeadlinesSteps.WhenISelectToReadNews("India") (0.0s)
Thread#0:B:Then 'India' should be displayed under the Sections
Thread#0:T:done: GoogleHeadlinesSteps.ThenShouldBeDisplayedUnderTheSections("India") (0.0s)
Thread#0:Scheduler: get next test for thread 0
Thread#:Scheduler: at the end of normal test queue
Thread#0:Scheduler: enumerator for thread is at end
Thread#0:Scheduler: No more tests for thread
Thread#0: Test #7/0 is finished on thread #0 as Succeeded within 0.0050135 seconds
Appdomain Disposed
Thread#-1:Scheduler: get next test for thread -1
Thread#:Scheduler: at the end of normal test queue
Thread#-1:Scheduler: enumerator for thread is at end
Total: 4
Succeeded: 3
Ignored: 0
Pending: 1
Skipped: 0
Failed: 0
